Name,Type,Min.,Max.,Default,Short Description
minPlayers,Integer,15,30,20,Required number of players for the game to start
k,Integer,2,6,2,small world: number of edges per vertex
v,Integer,1,10,2,preferential attachment: number of edges per vertex
testPassScore,Integer,0,6,3,Number of correct comprehension questions to pass test
p,Decimal,0,1,.05,small world: probability of rewiring each edge
maxPlayers,Integer,20,30,28,Players beyond this number will be dropped
nRounds,Integer,1,20,19,Number of rounds
graphType,Integer,1,3,3,1: small world
po,Integer,10,1000,100,Payoff
initScore,Integer,0,2000,1000,Initial starting score
showPreviousRound,Boolean,,,false,Show only previous round coop rate
endowment,Boolean,,,false,Inequality in initial endowments
coc,Integer,10,1000,50,Cost per neighbor
dynamic,Boolean,,,false,If the experiment is dynamic or static
socialcapital,Boolean,,,false,Inequality in social Capital
connectivity,Decimal,0,1,.167,random: probability of edge existance
identity,Integer,1,2,1,1= identity
addAI,Boolean,,,false,Add AI for testing purposes
individualChoice,Boolean,,,false,Should players make choice to cooperate per neighbor
treatment,Integer,1,3,1,1: no information 2: one link removed 3: full information
politicalOrientation,Boolean,,,false,Determines whether the question regarding political orientation is posed to players before the start of the game.
skip,Boolean,,,false,Skips the comprehension questions when true.
inGroupRep,Boolean,,,false,Display in group reputation in the make ties step
inAndOutGroupRep,Boolean,,,false,Display in group and out group reputation
